<svg xmlns="http://www.w3.org/2000/svg" xml:space="preserve" width="1085.3" height="134.6" fill-rule="evenodd" clip-rule="evenodd" image-rendering="optimizeQuality" shape-rendering="geometricPrecision" text-rendering="geometricPrecision" viewBox="0 0 6494 805">
  <path d="M4858 0h1233a404 404 0 0 1 0 805H4858V0zm1277 209h-93l-80-80-80 80h-113v113l-81 81 81 80v113h113l80 81 80-81h114V483l80-80-80-81V209h-21zm-101 42h80v89l63 63-63 63v89h-89l-63 63-63-63h-89v-89l-63-63 63-63v-89h89l63-63 63 63h9zm-595-42h-93l-80-80-80 80h-113v113l-81 81 81 80v113h113l80 81 80-81h114V483l80-80-80-81V209h-21zm-101 42h80v89l63 63-63 63v89h-89l-63 63-63-63h-89v-89l-63-63 63-63v-89h89l63-63 63 63h9zM3395 805h-335V167a167 167 0 0 1 335 0v638zm599 0h-335V167a168 168 0 0 1 335 0v638zm599 0h-335V167a168 168 0 0 1 335 0v638zM0 0h2797v805H0z" class="fil0"/>
</svg>
